<?xml version="1.0" encoding="UTF-8" standalone="no"?>
<!-- Created with Inkscape (http://www.inkscape.org/) -->
<svg
   xmlns:dc="http://purl.org/dc/elements/1.1/"
   xmlns:cc="http://web.resource.org/cc/"
   xmlns:rdf="http://www.w3.org/1999/02/22-rdf-syntax-ns#"
   xmlns:svg="http://www.w3.org/2000/svg"
   xmlns="http://www.w3.org/2000/svg"
   xmlns:sodipodi="http://sodipodi.sourceforge.net/DTD/sodipodi-0.dtd"
   xmlns:inkscape="http://www.inkscape.org/namespaces/inkscape"
   width="64px"
   height="64px"
   id="svg2160"
   sodipodi:version="0.32"
   inkscape:version="0.45.1"
   sodipodi:docbase="C:\Users\kugl1893\Desktop"
   sodipodi:docname="LocateMe.svg"
   inkscape:output_extension="org.inkscape.output.svg.inkscape">
  <defs
     id="defs2162" />
  <sodipodi:namedview
     id="base"
     pagecolor="#ffffff"
     bordercolor="#666666"
     borderopacity="1.0"
     inkscape:pageopacity="0.0"
     inkscape:pageshadow="2"
     inkscape:zoom="11"
     inkscape:cx="36.078356"
     inkscape:cy="34.302204"
     inkscape:current-layer="layer1"
     showgrid="true"
     inkscape:document-units="px"
     inkscape:grid-bbox="true"
     inkscape:window-width="1920"
     inkscape:window-height="1147"
     inkscape:window-x="-8"
     inkscape:window-y="-8" />
  <metadata
     id="metadata2165">
    <rdf:RDF>
      <cc:Work
         rdf:about="">
        <dc:format>image/svg+xml</dc:format>
        <dc:type
           rdf:resource="http://purl.org/dc/dcmitype/StillImage" />
      </cc:Work>
    </rdf:RDF>
  </metadata>
  <g
     id="layer1"
     inkscape:label="Layer 1"
     inkscape:groupmode="layer">
    <path
       sodipodi:type="arc"
       style="opacity:1;fill:#307dff;fill-opacity:0.86131388;fill-rule:evenodd;stroke:#000000;stroke-width:1px;stroke-linecap:butt;stroke-linejoin:miter;stroke-opacity:0"
       id="path2168"
       sodipodi:cx="32.81818"
       sodipodi:cy="32.272728"
       sodipodi:rx="31.363636"
       sodipodi:ry="31.363636"
       d="M 64.181816 32.272728 A 31.363636 31.363636 0 1 1  1.4545441,32.272728 A 31.363636 31.363636 0 1 1  64.181816 32.272728 z"
       transform="matrix(1.0127776,0,0,0.6136151,-1.0784274,24.55802)" />
    <path
       sodipodi:type="arc"
       style="opacity:1;fill:#ffffff;fill-opacity:1;stroke:#000000;stroke-opacity:0"
       id="path6254"
       sodipodi:cx="37"
       sodipodi:cy="33.18182"
       sodipodi:rx="22.454546"
       sodipodi:ry="25"
       d="M 59.454546 33.18182 A 22.454546 25 0 1 1  14.545454,33.18182 A 22.454546 25 0 1 1  59.454546 33.18182 z"
       transform="matrix(1.203517,0,0,0.657295,-12.028954,22.273471)" />
    <a
       id="a6270"
       transform="matrix(1.0034446,0,0,0.6101509,-0.1107768,24.863961)"
       style="fill:#307dff;fill-opacity:0.86131388">
      <path
         transform="matrix(0.7061341,0,0,0.7061341,9.3259638,8.7111262)"
         d="M 64.181816 32.272728 A 31.363636 31.363636 0 1 1  1.4545441,32.272728 A 31.363636 31.363636 0 1 1  64.181816 32.272728 z"
         sodipodi:ry="31.363636"
         sodipodi:rx="31.363636"
         sodipodi:cy="32.272728"
         sodipodi:cx="32.81818"
         id="path6260"
         style="opacity:1;fill:#307dff;fill-opacity:0.86131388;fill-rule:evenodd;stroke:#000000;stroke-width:1px;stroke-linecap:butt;stroke-linejoin:miter;stroke-opacity:0"
         sodipodi:type="arc" />
    </a>
    <rect
       style="opacity:1;fill:#ffffff;fill-opacity:1;stroke:#000000;stroke-width:0.75677413;stroke-opacity:0"
       id="rect6262"
       width="14.072398"
       height="3.0707881"
       x="5.8478065"
       y="42.548321" />
    <rect
       style="opacity:1;fill:#ffffff;fill-opacity:1;stroke:#000000;stroke-width:0.75730032;stroke-opacity:0"
       id="rect6264"
       width="14.093858"
       height="3.0703781"
       x="45.037537"
       y="42.52079" />
    <rect
       style="opacity:1;fill:#ffffff;fill-opacity:1;stroke:#000000;stroke-width:0.76065683;stroke-opacity:0"
       id="rect6266"
       width="8.6533718"
       height="5.0451908"
       x="27.836876"
       y="-35.52549"
       transform="matrix(0,1,-1,0,0,0)" />
    <rect
       style="opacity:1;fill:#ffffff;fill-opacity:1;stroke:#000000;stroke-width:0.75452876;stroke-opacity:0"
       id="rect6268"
       width="8.5012627"
       height="5.05305"
       x="51.720741"
       y="-35.529423"
       transform="matrix(0,1,-1,0,0,0)" />
    <path
       transform="matrix(1.0093009,0,0,1.0056777,-79.903159,-0.501416)"
       d="M 64.181816 32.272728 A 31.363636 31.363636 0 1 1  1.4545441,32.272728 A 31.363636 31.363636 0 1 1  64.181816 32.272728 z"
       sodipodi:ry="31.363636"
       sodipodi:rx="31.363636"
       sodipodi:cy="32.272728"
       sodipodi:cx="32.81818"
       id="path6273"
       style="opacity:1;fill:#3d70cf;fill-opacity:1;fill-rule:evenodd;stroke:#000000;stroke-width:1px;stroke-linecap:butt;stroke-linejoin:miter;stroke-opacity:0"
       sodipodi:type="arc" />
    <path
       transform="matrix(1.1993855,0,0,1.0772663,-90.816094,-4.245653)"
       d="M 59.454546 33.18182 A 22.454546 25 0 1 1  14.545454,33.18182 A 22.454546 25 0 1 1  59.454546 33.18182 z"
       sodipodi:ry="25"
       sodipodi:rx="22.454546"
       sodipodi:cy="33.18182"
       sodipodi:cx="37"
       id="path6275"
       style="opacity:1;fill:#ffffff;fill-opacity:1;stroke:#000000;stroke-opacity:0"
       sodipodi:type="arc" />
    <a
       id="a6277"
       transform="translate(-78.93883,1.9974338e-6)">
      <path
         sodipodi:type="arc"
         style="opacity:1;fill:#3d70cf;fill-opacity:1;fill-rule:evenodd;stroke:#000000;stroke-width:1px;stroke-linecap:butt;stroke-linejoin:miter;stroke-opacity:0"
         id="path6279"
         sodipodi:cx="32.81818"
         sodipodi:cy="32.272728"
         sodipodi:rx="31.363636"
         sodipodi:ry="31.363636"
         d="M 64.181816 32.272728 A 31.363636 31.363636 0 1 1  1.4545441,32.272728 A 31.363636 31.363636 0 1 1  64.181816 32.272728 z"
         transform="matrix(0.7061341,0,0,0.7061341,9.3259638,8.7111262)" />
    </a>
    <rect
       y="28.983585"
       x="-73.000702"
       height="5.0328341"
       width="14.02409"
       id="rect6281"
       style="opacity:1;fill:#ffffff;fill-opacity:1;stroke:#000000;stroke-width:0.96716583;stroke-opacity:0" />
    <rect
       y="28.938465"
       x="-33.945503"
       height="5.0321617"
       width="14.045476"
       id="rect6283"
       style="opacity:1;fill:#ffffff;fill-opacity:1;stroke:#000000;stroke-width:0.96783829;stroke-opacity:0" />
    <rect
       transform="matrix(0,1,-1,0,0,0)"
       y="43.424896"
       x="4.8724294"
       height="5.0278716"
       width="14.182347"
       id="rect6285"
       style="opacity:1;fill:#ffffff;fill-opacity:1;stroke:#000000;stroke-width:0.97212797;stroke-opacity:0" />
    <rect
       transform="matrix(0,1,-1,0,0,0)"
       y="43.420979"
       x="44.016624"
       height="5.0357037"
       width="13.933049"
       id="rect6287"
       style="opacity:1;fill:#ffffff;fill-opacity:1;stroke:#000000;stroke-width:0.96429622;stroke-opacity:0" />
    <path
       sodipodi:type="arc"
       style="opacity:1;fill:#a40000;fill-opacity:1;stroke:#000000;stroke-opacity:0"
       id="path7260"
       sodipodi:cx="34.32682"
       sodipodi:cy="14.438243"
       sodipodi:rx="12.342227"
       sodipodi:ry="9.0638237"
       d="M 46.669047 14.438243 A 12.342227 9.0638237 0 1 1  21.984593,14.438243 A 12.342227 9.0638237 0 1 1  46.669047 14.438243 z"
       transform="matrix(1.357776,0,0,1.7779645,-14.142978,-9.3153994)" />
    <path
       style="fill:#a40000;fill-opacity:1;fill-rule:evenodd;stroke:#000000;stroke-width:1px;stroke-linecap:butt;stroke-linejoin:miter;stroke-opacity:0"
       d="M 17.858783,24.119198 L 32.521219,48.590909 L 47.001837,24.312046"
       id="path9210"
       sodipodi:nodetypes="ccc" />
    <path
       sodipodi:type="arc"
       style="opacity:1;fill:#ffffff;fill-opacity:1;stroke:#000000;stroke-opacity:0"
       id="path9214"
       sodipodi:cx="32.5"
       sodipodi:cy="16.681818"
       sodipodi:rx="7.5"
       sodipodi:ry="7.5"
       d="M 40 16.681818 A 7.5 7.5 0 1 1  25,16.681818 A 7.5 7.5 0 1 1  40 16.681818 z"
       transform="matrix(1.3125,0,0,1.3125,-10.044122,-5.3039769)" />
  </g>
</svg>
