ID,FollowerID,PosterID
1,23,18
2,38,4
3,39,36
4,11,46
5,35,50
6,50,48
7,15,30
8,18,23
9,30,49
10,17,10
11,32,34
12,24,10
13,19,41
14,11,34
15,17,43
16,14,14
17,46,23
18,12,13
19,4,50
20,10,2
21,47,15
22,4,41
23,34,8
24,44,17
25,33,31
26,20,38
27,19,18
28,35,24
29,30,36
30,45,37
31,9,18
32,29,2
33,12,47
34,43,32
35,29,16
36,25,7
37,3,30
38,13,9
39,6,24
40,43,45
41,13,17
42,44,42
43,48,25
44,37,10
45,1,12
46,7,18
47,49,42
48,4,45
49,38,36
50,10,36
