ID,Firstname,Lastname,Email,Phone,LocationID
1,Natale,Colgan,ncolgan0@1und1.de,1255674110,1
2,Dorthea,Emburey,demburey1@sciencedirect.com,8416235433,2
3,Britt,Trunchion,btrunchion2@java.com,8783170084,3
4,Agneta,Blakemore,ablakemore3@dion.ne.jp,5403065717,4
5,Carmencita,Heardman,cheardman4@cyberchimps.com,2704746429,5
6,Lenka,Iacomelli,liacomelli5@comsenz.com,2249588473,6
7,Luciano,Duncanson,lduncanson6@kickstarter.com,2098764937,7
8,Cybil,Eykelbosch,ceykelbosch7@answers.com,6292442519,8
9,Nicola,Beenham,nbeenham8@theguardian.com,7724875005,9
10,Jewel,Churchyard,jchurchyard9@com.com,3678936161,10
11,Nola,Teesdale,nteesdalea@simplemachines.org,2861239401,11
12,Cammie,Figgen,cfiggenb@instagram.com,2367432958,12
13,Hill,Aiers,haiersc@intel.com,7473582381,13
14,Annabal,Girdler,agirdlerd@dailymotion.com,4706746998,14
15,Wilmette,Reagan,wreagane@epa.gov,2409000162,15
16,Esdras,Beddoe,ebeddoef@forbes.com,3505246887,16
17,Carola,Coneron,cconerong@utexas.edu,6691940924,17
18,Shelley,Gunstone,sgunstoneh@fema.gov,2493714030,18
19,Wang,Polkinhorn,wpolkinhorni@4shared.com,5203970085,19
20,Wolfie,Tunniclisse,wtunniclissej@berkeley.edu,9977050584,20
21,Blair,Limeburner,blimeburnerk@guardian.co.uk,2696523381,21
22,Myrta,Godleman,mgodlemanl@wunderground.com,8136398144,22
23,Sherwynd,Castleton,scastletonm@blogs.com,5372028048,23
24,Verge,Toolin,vtoolinn@epa.gov,2678209944,24
25,Marnie,Duffer,mduffero@amazon.co.uk,3853409652,25
26,Elia,Suffield,esuffieldp@va.gov,1432680297,26
27,Maryjo,Stockau,mstockauq@jiathis.com,5437791082,27
28,Anastasia,Cominetti,acominettir@mediafire.com,7335457918,28
29,Gaspar,Matanin,gmatanins@homestead.com,5613178681,29
30,Nelle,Rougier,nrougiert@prnewswire.com,4705512596,30
31,Elihu,Scamp,escampu@msn.com,2989940292,31
32,Eduino,McRorie,emcroriev@tmall.com,3559168501,32
33,Chrissie,Neate,cneatew@sun.com,3613112267,33
34,Veriee,Tongs,vtongsx@alibaba.com,2438891549,34
35,Carlo,Stanbro,cstanbroy@sohu.com,3352161715,35
36,Ernie,Weeks,eweeksz@unicef.org,1206787777,36
37,Denyse,Rowly,drowly10@unblog.fr,5257543010,37
38,Mariana,Darthe,mdarthe11@blogs.com,5954359911,38
39,Aeriell,Pitceathly,apitceathly12@etsy.com,9695885236,39
40,Steward,Crump,scrump13@soundcloud.com,4435397671,40
41,Lusa,Domingues,ldomingues14@earthlink.net,3495120466,41
42,Denney,Toffoloni,dtoffoloni15@delicious.com,3126110869,42
43,Kippy,Joll,kjoll16@smh.com.au,6502754712,43
44,Josephina,Worboy,jworboy17@sciencedirect.com,8758412351,44
45,Monica,Bradfield,mbradfield18@stanford.edu,6699101434,45
46,Ruthe,Dixcey,rdixcey19@go.com,6556011575,46
47,Mattie,Cabel,mcabel1a@amazon.com,6204784895,47
48,Jinny,Whieldon,jwhieldon1b@sfgate.com,8596594190,48
49,Michal,Ben,mben1c@mapquest.com,1461487311,49
50,Lilllie,Moralas,lmoralas1d@home.pl,4484419133,50
51,Jone,Clemenzo,jclemenzo1e@diigo.com,1043398111,51
52,Isidora,Hemstead,ihemstead1f@barnesandnoble.com,4715782351,52
53,Odell,Brundle,obrundle1g@home.pl,4983446259,53
54,Danika,MacPaden,dmacpaden1h@weebly.com,3694840079,54
55,Saraann,Onraet,sonraet1i@yellowpages.com,8572212387,55
56,Moises,Vaughan-Hughes,mvaughanhughes1j@ox.ac.uk,4232663219,56
57,Cherice,Doonican,cdoonican1k@apache.org,2589933957,57
58,Scot,Pilipyak,spilipyak1l@photobucket.com,3369668323,58
59,Cynthy,Cooke,ccooke1m@scientificamerican.com,2292241713,59
60,Eulalie,Illingsworth,eillingsworth1n@symantec.com,1537932333,60
61,Erica,Josephi,ejosephi1o@techcrunch.com,3616569474,61
62,Katee,Pleming,kpleming1p@economist.com,6576540570,62
63,Rancell,Brugh,rbrugh1q@dagondesign.com,8951639918,63
64,Sherman,MacGarvey,smacgarvey1r@state.gov,4805440024,64
65,Elyn,Lowe,elowe1s@skype.com,8516797670,65
66,Forrester,Kenset,fkenset1t@foxnews.com,7096656236,66
67,Lindsay,Bladon,lbladon1u@businessinsider.com,1032782414,67
68,Nona,Magrane,nmagrane1v@businessweek.com,3387112662,68
69,Melody,Vigus,mvigus1w@hubpages.com,6848335749,69
70,Cristionna,Anthill,canthill1x@naver.com,7244139979,70
71,Natty,Orringe,norringe1y@berkeley.edu,4687384168,71
72,Effie,Griffitt,egriffitt1z@shop-pro.jp,9945049934,72
73,Birgitta,Basketfield,bbasketfield20@apache.org,5005362880,73
74,Georgeanne,Imlen,gimlen21@flavors.me,8741905690,74
75,Bogart,Fairpool,bfairpool22@feedburner.com,3885709153,75
76,Malina,Philpault,mphilpault23@google.ru,1717970828,76
77,Galvin,Weinham,gweinham24@clickbank.net,1533922447,77
78,Mead,Laroux,mlaroux25@ycombinator.com,6859830289,78
79,Bernie,Osmond,bosmond26@nationalgeographic.com,4733879433,79
80,Ruben,Fritchley,rfritchley27@pinterest.com,9229546545,80
81,Carlye,Cassimer,ccassimer28@jugem.jp,2612531367,81
82,Quinlan,Matanin,qmatanin29@livejournal.com,4179706798,82
83,Flossy,Reid,freid2a@ed.gov,2671869824,83
84,Harriett,Woofenden,hwoofenden2b@hatena.ne.jp,8473544015,84
85,Udell,Bickle,ubickle2c@psu.edu,6826296641,85
86,Kristoffer,Diggons,kdiggons2d@i2i.jp,9403465789,86
87,Winthrop,Tollemache,wtollemache2e@ebay.co.uk,9178156820,87
88,Kimball,Shipston,kshipston2f@weather.com,2659230355,88
89,Win,De'Ath,wdeath2g@alibaba.com,9602720785,89
90,Glenden,Mayger,gmayger2h@360.cn,8773234169,90
91,Zared,Heephy,zheephy2i@amazon.de,4059532427,91
92,Gloria,Draisey,gdraisey2j@tiny.cc,2792062652,92
93,Ethelin,Pawson,epawson2k@woothemes.com,7234255973,93
94,Paquito,Balden,pbalden2l@globo.com,7876215911,94
95,Decca,Deschlein,ddeschlein2m@bandcamp.com,7832285006,95
96,Torey,Dawidsohn,tdawidsohn2n@blogger.com,4752838284,96
97,Julissa,Durand,jdurand2o@homestead.com,4596263343,97
98,Kale,Chaman,kchaman2p@disqus.com,3001026562,98
99,Cornelle,Wilsey,cwilsey2q@goo.gl,8611160318,99
100,Lacey,Salle,lsalle2r@wikispaces.com,9055599701,100
