ID,Address,City,State,Latitude,Longitude
1,3818 Marquette Place,Portland,Oregon,45.5653,-122.6448
2,850 Judy Lane,Portland,Oregon,45.484,-122.5973
3,02429 Butternut Terrace,Salem,Oregon,44.8685,-123.0438
4,33318 Graceland Court,Portland,Oregon,45.5653,-122.6448
5,23 Reindahl Way,Portland,Oregon,45.5653,-122.6448
6,66 Mayfield Junction,Portland,Oregon,45.5078,-122.6897
7,47 Cherokee Terrace,Portland,Oregon,45.484,-122.5973
8,145 Utah Way,Portland,Oregon,45.4918,-122.7267
9,096 Warner Point,Beaverton,Oregon,45.5486,-123.1147
10,79280 Westport Trail,Beaverton,Oregon,45.5486,-123.1147
11,51 Grayhawk Avenue,Portland,Oregon,45.5078,-122.6897
12,49259 Sachtjen Pass,Portland,Oregon,45.4918,-122.7267
13,8 Lunder Junction,Portland,Oregon,45.5137,-122.5569
14,55 Barby Center,Portland,Oregon,45.5806,-122.3748
15,13147 Stang Parkway,Salem,Oregon,44.8685,-123.0438
16,083 Truax Parkway,Portland,Oregon,45.5806,-122.3748
17,778 Packers Terrace,Portland,Oregon,45.5806,-122.3748
18,41719 Buena Vista Parkway,Portland,Oregon,45.5483,-122.8276
19,0 Tennyson Way,Portland,Oregon,45.5653,-122.6448
20,641 Hazelcrest Lane,Portland,Oregon,45.5137,-122.5569
21,05 Canary Center,Eugene,Oregon,44.0185,-123.0998
22,82 Northport Center,Portland,Oregon,45.5806,-122.3748
23,61 Mcguire Terrace,Portland,Oregon,45.5806,-122.3748
24,785 Columbus Parkway,Portland,Oregon,45.5806,-122.3748
25,8 Monterey Circle,Salem,Oregon,44.8685,-123.0438
26,4 Dawn Trail,Portland,Oregon,45.5137,-122.5569
27,129 Carioca Drive,Portland,Oregon,45.5287,-122.6363
28,623 Gina Lane,Portland,Oregon,45.5806,-122.3748
29,77896 Claremont Pass,Portland,Oregon,45.5078,-122.6897
30,0996 Sutherland Junction,Portland,Oregon,45.5806,-122.3748
31,7 Bunting Street,Beaverton,Oregon,45.5486,-123.1147
32,123 Wayridge Drive,Salem,Oregon,44.9364,-123.0381
33,396 Saint Paul Pass,Portland,Oregon,45.4918,-122.7267
34,1047 Blue Bill Park Avenue,Portland,Oregon,45.5806,-122.3748
35,727 Eastlawn Pass,Portland,Oregon,45.5078,-122.6897
36,783 Summit Way,Portland,Oregon,45.4918,-122.7267
37,5689 North Court,Salem,Oregon,44.8685,-123.0438
38,96013 Elka Center,Salem,Oregon,44.8685,-123.0438
39,5 Garrison Crossing,Portland,Oregon,45.5806,-122.3748
40,155 Charing Cross Hill,Portland,Oregon,45.5806,-122.3748
41,38 Vera Road,Portland,Oregon,45.5483,-122.8276
42,4682 Ridgeview Parkway,Portland,Oregon,45.5806,-122.3748
43,2697 Mandrake Plaza,Portland,Oregon,45.5806,-122.3748
44,9 Calypso Circle,Portland,Oregon,45.5287,-122.6363
45,2427 Grayhawk Terrace,Portland,Oregon,45.5078,-122.6897
46,69 Sunnyside Junction,Portland,Oregon,45.4918,-122.7267
47,23717 Loomis Way,Portland,Oregon,45.5806,-122.3748
48,2 Delaware Street,Beaverton,Oregon,45.5486,-123.1147
49,9149 Mesta Center,Portland,Oregon,45.5483,-122.8276
50,51999 2nd Avenue,Portland,Oregon,45.5806,-122.3748
51,3899 Forest Run Drive,Portland,Oregon,45.484,-122.5973
52,38 Dahle Junction,Portland,Oregon,45.5806,-122.3748
53,7065 Artisan Hill,Salem,Oregon,44.9364,-123.0381
54,210 Scofield Place,Portland,Oregon,45.484,-122.5973
55,47064 Forster Center,Portland,Oregon,45.5806,-122.3748
56,97073 Kenwood Drive,Portland,Oregon,45.5806,-122.3748
57,72 Straubel Pass,Portland,Oregon,45.5806,-122.3748
58,16682 Menomonie Point,Portland,Oregon,45.484,-122.5973
59,65 Old Gate Circle,Portland,Oregon,45.5806,-122.3748
60,3509 Leroy Hill,Portland,Oregon,45.4918,-122.7267
61,104 Hayes Park,Portland,Oregon,45.484,-122.5973
62,627 Calypso Center,Portland,Oregon,45.5287,-122.6363
63,71 Saint Paul Drive,Portland,Oregon,45.5653,-122.6448
64,68 Straubel Circle,Salem,Oregon,44.9364,-123.0381
65,25616 John Wall Hill,Portland,Oregon,45.5806,-122.3748
66,68615 Blue Bill Park Plaza,Portland,Oregon,45.5078,-122.6897
67,564 Shelley Street,Beaverton,Oregon,45.5486,-123.1147
68,36 Dovetail Point,Eugene,Oregon,44.0185,-123.0998
69,1559 Tomscot Court,Portland,Oregon,45.5806,-122.3748
70,1 Dottie Crossing,Portland,Oregon,45.5806,-122.3748
71,30881 Eggendart Lane,Portland,Oregon,45.5137,-122.5569
72,8 Declaration Lane,Salem,Oregon,44.9364,-123.0381
73,78 Sheridan Plaza,Portland,Oregon,45.5137,-122.5569
74,6417 Northridge Junction,Salem,Oregon,44.9364,-123.0381
75,0200 Stephen Road,Portland,Oregon,45.5806,-122.3748
76,531 4th Street,Portland,Oregon,45.5806,-122.3748
77,5 Kingsford Center,Portland,Oregon,45.5806,-122.3748
78,5166 Montana Avenue,Portland,Oregon,45.5806,-122.3748
79,579 Kim Center,Portland,Oregon,45.5483,-122.8276
80,3747 Kingsford Plaza,Portland,Oregon,45.5806,-122.3748
81,951 Dayton Avenue,Salem,Oregon,44.9364,-123.0381
82,90 Hoffman Road,Portland,Oregon,45.5287,-122.6363
83,1834 Mallory Center,Salem,Oregon,44.8685,-123.0438
84,5 Cardinal Place,Portland,Oregon,45.5806,-122.3748
85,793 Clyde Gallagher Lane,Portland,Oregon,45.5483,-122.8276
86,1 Main Circle,Salem,Oregon,44.9364,-123.0381
87,33428 Mockingbird Way,Beaverton,Oregon,45.5486,-123.1147
88,2584 Jay Avenue,Portland,Oregon,45.5806,-122.3748
89,66376 High Crossing Point,Portland,Oregon,45.4918,-122.7267
90,25042 Del Mar Center,Portland,Oregon,45.5653,-122.6448
91,92947 Merchant Avenue,Salem,Oregon,44.9364,-123.0381
92,66341 Waubesa Way,Portland,Oregon,45.5078,-122.6897
93,76 Gateway Point,Portland,Oregon,45.484,-122.5973
94,8007 Anhalt Way,Eugene,Oregon,44.0185,-123.0998
95,073 Di Loreto Circle,Beaverton,Oregon,45.5486,-123.1147
96,0577 Calypso Terrace,Portland,Oregon,45.5806,-122.3748
97,6741 Kropf Point,Portland,Oregon,45.5287,-122.6363
98,64 Tomscot Avenue,Salem,Oregon,44.8685,-123.0438
99,38569 Hayes Plaza,Salem,Oregon,44.8685,-123.0438
100,5 Hermina Crossing,Salem,Oregon,44.9364,-123.0381
101,0616 East Avenue,Beaverton,Oregon,45.5486,-123.1147
102,41 Lakewood Drive,Portland,Oregon,45.5806,-122.3748
103,532 Dawn Parkway,Beaverton,Oregon,45.5486,-123.1147
104,174 Shopko Pass,Portland,Oregon,45.5806,-122.3748
105,446 David Way,Portland,Oregon,45.5806,-122.3748
106,646 Reindahl Alley,Portland,Oregon,45.5806,-122.3748
107,08 Judy Circle,Portland,Oregon,45.5287,-122.6363
108,56 Fairfield Lane,Salem,Oregon,44.9364,-123.0381
109,9 Center Pass,Portland,Oregon,45.5137,-122.5569
110,12 Bobwhite Drive,Portland,Oregon,45.5806,-122.3748
111,56965 Maywood Parkway,Salem,Oregon,44.9364,-123.0381
112,19 Mayfield Parkway,Eugene,Oregon,44.0185,-123.0998
113,13 Ridgeview Terrace,Portland,Oregon,45.4918,-122.7267
114,50 Pepper Wood Avenue,Portland,Oregon,45.5653,-122.6448
115,07612 Scofield Point,Portland,Oregon,45.4918,-122.7267
116,72 Arapahoe Terrace,Eugene,Oregon,44.0185,-123.0998
117,6 Loftsgordon Pass,Salem,Oregon,44.9364,-123.0381
118,50 Briar Crest Trail,Portland,Oregon,45.484,-122.5973
119,25583 Bellgrove Junction,Portland,Oregon,45.5806,-122.3748
120,540 Pepper Wood Lane,Salem,Oregon,44.9364,-123.0381
121,438 Talmadge Parkway,Portland,Oregon,45.5653,-122.6448
122,1 Manley Street,Portland,Oregon,45.5806,-122.3748
123,72368 Del Sol Park,Portland,Oregon,45.5806,-122.3748
124,20 Magdeline Place,Portland,Oregon,45.5806,-122.3748
125,389 Clove Plaza,Salem,Oregon,44.9364,-123.0381
126,4 Manley Way,Portland,Oregon,45.5287,-122.6363
127,0 Becker Center,Beaverton,Oregon,45.5486,-123.1147
128,6 Buell Point,Portland,Oregon,45.484,-122.5973
129,549 American Circle,Portland,Oregon,45.5287,-122.6363
130,6 Armistice Terrace,Portland,Oregon,45.5806,-122.3748
131,00526 Corscot Pass,Portland,Oregon,45.5287,-122.6363
132,6605 Kinsman Street,Portland,Oregon,45.5137,-122.5569
133,45 4th Parkway,Portland,Oregon,45.5137,-122.5569
134,5 Manitowish Place,Salem,Oregon,44.8685,-123.0438
135,8367 Gulseth Lane,Beaverton,Oregon,45.5486,-123.1147
136,12923 Sommers Circle,Portland,Oregon,45.5483,-122.8276
137,3235 Goodland Alley,Salem,Oregon,44.8685,-123.0438
138,5 Union Point,Eugene,Oregon,44.0185,-123.0998
139,59708 Jenna Parkway,Portland,Oregon,45.5806,-122.3748
140,5467 Melrose Alley,Portland,Oregon,45.5653,-122.6448
141,524 Division Way,Portland,Oregon,45.5806,-122.3748
142,078 Marcy Center,Portland,Oregon,45.5806,-122.3748
143,83 Holy Cross Junction,Portland,Oregon,45.4918,-122.7267
144,984 Surrey Drive,Portland,Oregon,45.5806,-122.3748
145,41 Troy Way,Portland,Oregon,45.484,-122.5973
146,1 Judy Way,Portland,Oregon,45.5653,-122.6448
147,87910 Merry Place,Portland,Oregon,45.5806,-122.3748
148,40182 Pond Trail,Portland,Oregon,45.5806,-122.3748
149,3240 Old Shore Terrace,Salem,Oregon,44.8685,-123.0438
150,11779 Sycamore Terrace,Portland,Oregon,45.484,-122.5973
