NPEventID,IndividualID,DateTimeWaited
1,31,2017-09-13 16:09:16
2,48,2017-12-17 18:00:29
3,22,2018-03-21 05:29:43
4,14,2018-01-09 10:56:29
5,14,2017-09-26 16:08:43
6,6,2019-04-30 20:29:01
7,29,2018-05-15 04:45:31
8,41,2018-09-12 12:29:30
9,37,2018-01-08 22:51:56
10,45,2018-08-16 13:01:36
11,10,2017-07-15 00:07:10
12,41,2018-05-27 02:36:45
13,23,2019-06-03 11:58:30
14,44,2019-05-06 06:25:14
15,34,2018-03-27 10:34:08
16,5,2018-07-25 11:35:20
17,12,2018-04-26 18:46:21
18,38,2017-08-22 01:51:33
19,21,2018-09-19 20:24:29
20,9,2019-05-10 01:24:48
21,31,2018-10-19 18:57:23
22,28,2018-12-25 01:53:24
23,20,2018-11-15 08:01:54
24,37,2017-12-02 21:09:29
25,47,2019-05-26 21:19:21
